Diamond sizes
…
Figure 1: Diamonds less than 2.5 carat

Most diamonds is between 0.25 and 0.5 carat.

The second most populated diamonds are 1 carat

28.5.5 Exercises

Exercise 1

Sizes by cut, color and clarity

# A tibble: 276 × 7
   cut   color clarity   min   max  mean median
   <ord> <ord> <ord>   <dbl> <dbl> <dbl>  <dbl>
 1 Fair  D     I1       0.91  3.4  1.88   1.6  
 2 Fair  D     SI2      0.3   2.07 1.02   1    
 3 Fair  D     SI1      0.4   2.02 0.914  0.905
 4 Fair  D     VS2      0.29  1.51 0.844  0.9  
 5 Fair  D     VS1      0.25  1    0.63   0.71 
 6 Fair  D     VVS2     0.3   1.01 0.591  0.5  
 7 Fair  D     VVS1     0.32  1    0.607  0.5  
 8 Fair  D     IF       0.3   0.47 0.38   0.37 
 9 Fair  E     I1       0.7   1.3  0.969  1.01 
10 Fair  E     SI2      0.41  2.04 1.02   1    
# ℹ 266 more rows
…
